{
    "m_SGVersion": 3,
    "m_Type": "UnityEditor.ShaderGraph.GraphData",
    "m_ObjectId": "b19c511890c8483ab5b1e394cc17f21c",
    "m_Properties": [
        {
            "m_Id": "ecebb52bea434a5f9c1842268666264b"
        },
        {
            "m_Id": "a7799f691e454bedb0d10995d987ffea"
        },
        {
            "m_Id": "f2d5b4fdf577440b93dd1924916f7410"
        },
        {
            "m_Id": "d3e3a9715bce4343a75f8b77404a8450"
        }
    ],
    "m_Keywords": [],
    "m_Dropdowns": [],
    "m_CategoryData": [
        {
            "m_Id": "185ce5920cdf4e9a9f109a409504dfd8"
        }
    ],
    "m_Nodes": [
        {
            "m_Id": "b1ab9cd245c44d79815e1e08487c43bd"
        },
        {
            "m_Id": "f76d8261e8bf47ae8914e1946a15e3f7"
        },
        {
            "m_Id": "0707919663084433a906ccde5b9011ac"
        },
        {
            "m_Id": "a3560c02d83e43aaaf1c87794fa387e6"
        },
        {
            "m_Id": "75ee69b87c4a44d2af63b68d2c1df419"
        },
        {
            "m_Id": "76eb812772a442f4bdc2a2c262b5da2f"
        },
        {
            "m_Id": "4d1e17fa57d34f22b46e21f4acd60f64"
        },
        {
            "m_Id": "ab93c063c2e2487fa87b78accf2799c3"
        },
        {
            "m_Id": "ea7275d131de4d9b9a7a7d9bcf7f40a9"
        },
        {
            "m_Id": "58f19dcf9dd14d94a4569ca73d3606ff"
        },
        {
            "m_Id": "1339033092164945b9edd4e0bf6480a5"
        },
        {
            "m_Id": "1635166557614e98bbda7fa4916159b3"
        },
        {
            "m_Id": "06c4a9c82b124fb480e853f49be0ce24"
        },
        {
            "m_Id": "a2b8049b547c48c9adbb98a378938de5"
        },
        {
            "m_Id": "41504a5aa12e415382d9e35255b0c694"
        },
        {
            "m_Id": "6f2cee51cc4841d6ac74d234792520de"
        },
        {
            "m_Id": "5099683ce1724d46a2d14bdd95ac66ce"
        },
        {
            "m_Id": "ddb26229ed6d4ebdb95b698589e6164d"
        },
        {
            "m_Id": "d78edd8ad52e49f0be2eba6c13e6b90a"
        },
        {
            "m_Id": "d3d81e2eff97454d83efa649534859fc"
        },
        {
            "m_Id": "94d2b4a951cc401890b48035c357e215"
        },
        {
            "m_Id": "c2bed2de8e634a7493c12bb59d3e5208"
        }
    ],
    "m_GroupDatas": [],
    "m_StickyNoteDatas": [],
    "m_Edges": [
        {
            "m_OutputSlot": {
                "m_Node": {
                    "m_Id": "06c4a9c82b124fb480e853f49be0ce24"
                },
                "m_SlotId": 0
            },
            "m_InputSlot": {
                "m_Node": {
                    "m_Id": "1339033092164945b9edd4e0bf6480a5"
                },
                "m_SlotId": -1359829709
            }
        },
        {
            "m_OutputSlot": {
                "m_Node": {
                    "m_Id": "06c4a9c82b124fb480e853f49be0ce24"
                },
                "m_SlotId": 0
            },
            "m_InputSlot": {
                "m_Node": {
                    "m_Id": "58f19dcf9dd14d94a4569ca73d3606ff"
                },
                "m_SlotId": -1359829709
            }
        },
        {
            "m_OutputSlot": {
                "m_Node": {
                    "m_Id": "06c4a9c82b124fb480e853f49be0ce24"
                },
                "m_SlotId": 0
            },
            "m_InputSlot": {
                "m_Node": {
                    "m_Id": "ddb26229ed6d4ebdb95b698589e6164d"
                },
                "m_SlotId": -1359829709
            }
        },
        {
            "m_OutputSlot": {
                "m_Node": {
                    "m_Id": "06c4a9c82b124fb480e853f49be0ce24"
                },
                "m_SlotId": 0
            },
            "m_InputSlot": {
                "m_Node": {
                    "m_Id": "ea7275d131de4d9b9a7a7d9bcf7f40a9"
                },
                "m_SlotId": -1359829709
            }
        },
        {
            "m_OutputSlot": {
                "m_Node": {
                    "m_Id": "0707919663084433a906ccde5b9011ac"
                },
                "m_SlotId": 2
            },
            "m_InputSlot": {
                "m_Node": {
                    "m_Id": "1635166557614e98bbda7fa4916159b3"
                },
                "m_SlotId": 2
            }
        },
        {
            "m_OutputSlot": {
                "m_Node": {
                    "m_Id": "0707919663084433a906ccde5b9011ac"
                },
                "m_SlotId": 2
            },
            "m_InputSlot": {
                "m_Node": {
                    "m_Id": "d78edd8ad52e49f0be2eba6c13e6b90a"
                },
                "m_SlotId": 2
            }
        },
        {
            "m_OutputSlot": {
                "m_Node": {
                    "m_Id": "1339033092164945b9edd4e0bf6480a5"
                },
                "m_SlotId": 1
            },
            "m_InputSlot": {
                "m_Node": {
                    "m_Id": "d78edd8ad52e49f0be2eba6c13e6b90a"
                },
                "m_SlotId": 0
            }
        },
        {
            "m_OutputSlot": {
                "m_Node": {
                    "m_Id": "1339033092164945b9edd4e0bf6480a5"
                },
                "m_SlotId": 1
            },
            "m_InputSlot": {
                "m_Node": {
                    "m_Id": "ea7275d131de4d9b9a7a7d9bcf7f40a9"
                },
                "m_SlotId": 1068447945
            }
        },
        {
            "m_OutputSlot": {
                "m_Node": {
                    "m_Id": "1635166557614e98bbda7fa4916159b3"
                },
                "m_SlotId": 3
            },
            "m_InputSlot": {
                "m_Node": {
                    "m_Id": "94d2b4a951cc401890b48035c357e215"
                },
                "m_SlotId": 0
            }
        },
        {
            "m_OutputSlot": {
                "m_Node": {
                    "m_Id": "41504a5aa12e415382d9e35255b0c694"
                },
                "m_SlotId": 0
            },
            "m_InputSlot": {
                "m_Node": {
                    "m_Id": "b1ab9cd245c44d79815e1e08487c43bd"
                },
                "m_SlotId": 1
            }
        },
        {
            "m_OutputSlot": {
                "m_Node": {
                    "m_Id": "4d1e17fa57d34f22b46e21f4acd60f64"
                },
                "m_SlotId": 0
            },
            "m_InputSlot": {
                "m_Node": {
                    "m_Id": "0707919663084433a906ccde5b9011ac"
                },
                "m_SlotId": 0
            }
        },
        {
            "m_OutputSlot": {
                "m_Node": {
                    "m_Id": "4d1e17fa57d34f22b46e21f4acd60f64"
                },
                "m_SlotId": 0
            },
            "m_InputSlot": {
                "m_Node": {
                    "m_Id": "5099683ce1724d46a2d14bdd95ac66ce"
                },
                "m_SlotId": 0
            }
        },
        {
            "m_OutputSlot": {
                "m_Node": {
                    "m_Id": "4d1e17fa57d34f22b46e21f4acd60f64"
                },
                "m_SlotId": 0
            },
            "m_InputSlot": {
                "m_Node": {
                    "m_Id": "58f19dcf9dd14d94a4569ca73d3606ff"
                },
                "m_SlotId": 239501123
            }
        },
        {
            "m_OutputSlot": {
                "m_Node": {
                    "m_Id": "4d1e17fa57d34f22b46e21f4acd60f64"
                },
                "m_SlotId": 0
            },
            "m_InputSlot": {
                "m_Node": {
                    "m_Id": "ddb26229ed6d4ebdb95b698589e6164d"
                },
                "m_SlotId": 239501123
            }
        },
        {
            "m_OutputSlot": {
                "m_Node": {
                    "m_Id": "4d1e17fa57d34f22b46e21f4acd60f64"
                },
                "m_SlotId": 0
            },
            "m_InputSlot": {
                "m_Node": {
                    "m_Id": "ea7275d131de4d9b9a7a7d9bcf7f40a9"
                },
                "m_SlotId": 239501123
            }
        },
        {
            "m_OutputSlot": {
                "m_Node": {
                    "m_Id": "5099683ce1724d46a2d14bdd95ac66ce"
                },
                "m_SlotId": 1
            },
            "m_InputSlot": {
                "m_Node": {
                    "m_Id": "1339033092164945b9edd4e0bf6480a5"
                },
                "m_SlotId": 239501123
            }
        },
        {
            "m_OutputSlot": {
                "m_Node": {
                    "m_Id": "6f2cee51cc4841d6ac74d234792520de"
                },
                "m_SlotId": 1
            },
            "m_InputSlot": {
                "m_Node": {
                    "m_Id": "41504a5aa12e415382d9e35255b0c694"
                },
                "m_SlotId": 1
            }
        },
        {
            "m_OutputSlot": {
                "m_Node": {
                    "m_Id": "6f2cee51cc4841d6ac74d234792520de"
                },
                "m_SlotId": 2
            },
            "m_InputSlot": {
                "m_Node": {
                    "m_Id": "41504a5aa12e415382d9e35255b0c694"
                },
                "m_SlotId": 2
            }
        },
        {
            "m_OutputSlot": {
                "m_Node": {
                    "m_Id": "6f2cee51cc4841d6ac74d234792520de"
                },
                "m_SlotId": 3
            },
            "m_InputSlot": {
                "m_Node": {
                    "m_Id": "41504a5aa12e415382d9e35255b0c694"
                },
                "m_SlotId": 3
            }
        },
        {
            "m_OutputSlot": {
                "m_Node": {
                    "m_Id": "75ee69b87c4a44d2af63b68d2c1df419"
                },
                "m_SlotId": 4
            },
            "m_InputSlot": {
                "m_Node": {
                    "m_Id": "1635166557614e98bbda7fa4916159b3"
                },
                "m_SlotId": 0
            }
        },
        {
            "m_OutputSlot": {
                "m_Node": {
                    "m_Id": "76eb812772a442f4bdc2a2c262b5da2f"
                },
                "m_SlotId": 0
            },
            "m_InputSlot": {
                "m_Node": {
                    "m_Id": "a2b8049b547c48c9adbb98a378938de5"
                },
                "m_SlotId": 0
            }
        },
        {
            "m_OutputSlot": {
                "m_Node": {
                    "m_Id": "76eb812772a442f4bdc2a2c262b5da2f"
                },
                "m_SlotId": 0
            },
            "m_InputSlot": {
                "m_Node": {
                    "m_Id": "c2bed2de8e634a7493c12bb59d3e5208"
                },
                "m_SlotId": 0
            }
        },
        {
            "m_OutputSlot": {
                "m_Node": {
                    "m_Id": "94d2b4a951cc401890b48035c357e215"
                },
                "m_SlotId": 4
            },
            "m_InputSlot": {
                "m_Node": {
                    "m_Id": "c2bed2de8e634a7493c12bb59d3e5208"
                },
                "m_SlotId": 1
            }
        },
        {
            "m_OutputSlot": {
                "m_Node": {
                    "m_Id": "a2b8049b547c48c9adbb98a378938de5"
                },
                "m_SlotId": 4
            },
            "m_InputSlot": {
                "m_Node": {
                    "m_Id": "41504a5aa12e415382d9e35255b0c694"
                },
                "m_SlotId": 4
            }
        },
        {
            "m_OutputSlot": {
                "m_Node": {
                    "m_Id": "a3560c02d83e43aaaf1c87794fa387e6"
                },
                "m_SlotId": 2
            },
            "m_InputSlot": {
                "m_Node": {
                    "m_Id": "0707919663084433a906ccde5b9011ac"
                },
                "m_SlotId": 1
            }
        },
        {
            "m_OutputSlot": {
                "m_Node": {
                    "m_Id": "ab93c063c2e2487fa87b78accf2799c3"
                },
                "m_SlotId": 4
            },
            "m_InputSlot": {
                "m_Node": {
                    "m_Id": "1635166557614e98bbda7fa4916159b3"
                },
                "m_SlotId": 1
            }
        },
        {
            "m_OutputSlot": {
                "m_Node": {
                    "m_Id": "ab93c063c2e2487fa87b78accf2799c3"
                },
                "m_SlotId": 4
            },
            "m_InputSlot": {
                "m_Node": {
                    "m_Id": "58f19dcf9dd14d94a4569ca73d3606ff"
                },
                "m_SlotId": 1068447945
            }
        },
        {
            "m_OutputSlot": {
                "m_Node": {
                    "m_Id": "ab93c063c2e2487fa87b78accf2799c3"
                },
                "m_SlotId": 4
            },
            "m_InputSlot": {
                "m_Node": {
                    "m_Id": "75ee69b87c4a44d2af63b68d2c1df419"
                },
                "m_SlotId": 0
            }
        },
        {
            "m_OutputSlot": {
                "m_Node": {
                    "m_Id": "ab93c063c2e2487fa87b78accf2799c3"
                },
                "m_SlotId": 4
            },
            "m_InputSlot": {
                "m_Node": {
                    "m_Id": "75ee69b87c4a44d2af63b68d2c1df419"
                },
                "m_SlotId": 2
            }
        },
        {
            "m_OutputSlot": {
                "m_Node": {
                    "m_Id": "ab93c063c2e2487fa87b78accf2799c3"
                },
                "m_SlotId": 4
            },
            "m_InputSlot": {
                "m_Node": {
                    "m_Id": "94d2b4a951cc401890b48035c357e215"
                },
                "m_SlotId": 2
            }
        },
        {
            "m_OutputSlot": {
                "m_Node": {
                    "m_Id": "c2bed2de8e634a7493c12bb59d3e5208"
                },
                "m_SlotId": 2
            },
            "m_InputSlot": {
                "m_Node": {
                    "m_Id": "6f2cee51cc4841d6ac74d234792520de"
                },
                "m_SlotId": 0
            }
        },
        {
            "m_OutputSlot": {
                "m_Node": {
                    "m_Id": "d3d81e2eff97454d83efa649534859fc"
                },
                "m_SlotId": 0
            },
            "m_InputSlot": {
                "m_Node": {
                    "m_Id": "a3560c02d83e43aaaf1c87794fa387e6"
                },
                "m_SlotId": 1
            }
        },
        {
            "m_OutputSlot": {
                "m_Node": {
                    "m_Id": "d78edd8ad52e49f0be2eba6c13e6b90a"
                },
                "m_SlotId": 3
            },
            "m_InputSlot": {
                "m_Node": {
                    "m_Id": "ab93c063c2e2487fa87b78accf2799c3"
                },
                "m_SlotId": 1
            }
        },
        {
            "m_OutputSlot": {
                "m_Node": {
                    "m_Id": "ddb26229ed6d4ebdb95b698589e6164d"
                },
                "m_SlotId": 1
            },
            "m_InputSlot": {
                "m_Node": {
                    "m_Id": "75ee69b87c4a44d2af63b68d2c1df419"
                },
                "m_SlotId": 3
            }
        },
        {
            "m_OutputSlot": {
                "m_Node": {
                    "m_Id": "ea7275d131de4d9b9a7a7d9bcf7f40a9"
                },
                "m_SlotId": 1
            },
            "m_InputSlot": {
                "m_Node": {
                    "m_Id": "ab93c063c2e2487fa87b78accf2799c3"
                },
                "m_SlotId": 0
            }
        },
        {
            "m_OutputSlot": {
                "m_Node": {
                    "m_Id": "f76d8261e8bf47ae8914e1946a15e3f7"
                },
                "m_SlotId": 0
            },
            "m_InputSlot": {
                "m_Node": {
                    "m_Id": "a3560c02d83e43aaaf1c87794fa387e6"
                },
                "m_SlotId": 0
            }
        }
    ],
    "m_VertexContext": {
        "m_Position": {
            "x": 0.0,
            "y": 0.0
        },
        "m_Blocks": []
    },
    "m_FragmentContext": {
        "m_Position": {
            "x": 0.0,
            "y": 0.0
        },
        "m_Blocks": []
    },
    "m_PreviewData": {
        "serializedMesh": {
            "m_SerializedMesh": "{\"mesh\":{\"instanceID\":0}}",
            "m_Guid": ""
        },
        "preventRotation": false
    },
    "m_Path": "Sub Graphs",
    "m_GraphPrecision": 1,
    "m_PreviewMode": 2,
    "m_OutputNode": {
        "m_Id": "b1ab9cd245c44d79815e1e08487c43bd"
    },
    "m_ActiveTargets": []
}

{
    "m_SGVersion": 0,
    "m_Type": "UnityEditor.ShaderGraph.Vector1MaterialSlot",
    "m_ObjectId": "039b062336534c96b2d469d4fd0d07bf",
    "m_Id": -1359829709,
    "m_DisplayName": "zoom",
    "m_SlotType": 0,
    "m_Hidden": false,
    "m_ShaderOutputName": "_zoom",
    "m_StageCapability": 3,
    "m_Value": 8.0,
    "m_DefaultValue": 0.0,
    "m_Labels": []
}

{
    "m_SGVersion": 0,
    "m_Type": "UnityEditor.ShaderGraph.DynamicValueMaterialSlot",
    "m_ObjectId": "04ff6316c9c5438d82023590d33f1dff",
    "m_Id": 1,
    "m_DisplayName": "B",
    "m_SlotType": 0,
    "m_Hidden": false,
    "m_ShaderOutputName": "B",
    "m_StageCapability": 3,
    "m_Value": {
        "e00": 2.0,
        "e01": 2.0,
        "e02": 2.0,
        "e03": 2.0,
        "e10": 2.0,
        "e11": 2.0,
        "e12": 2.0,
        "e13": 2.0,
        "e20": 2.0,
        "e21": 2.0,
        "e22": 2.0,
        "e23": 2.0,
        "e30": 2.0,
        "e31": 2.0,
        "e32": 2.0,
        "e33": 2.0
    },
    "m_DefaultValue": {
        "e00": 1.0,
        "e01": 0.0,
        "e02": 0.0,
        "e03": 0.0,
        "e10": 0.0,
        "e11": 1.0,
        "e12": 0.0,
        "e13": 0.0,
        "e20": 0.0,
        "e21": 0.0,
        "e22": 1.0,
        "e23": 0.0,
        "e30": 0.0,
        "e31": 0.0,
        "e32": 0.0,
        "e33": 1.0
    }
}

{
    "m_SGVersion": 0,
    "m_Type": "UnityEditor.ShaderGraph.Vector1MaterialSlot",
    "m_ObjectId": "056bf3fcf0f84283880c193a8206dcb8",
    "m_Id": 4,
    "m_DisplayName": "W",
    "m_SlotType": 0,
    "m_Hidden": false,
    "m_ShaderOutputName": "W",
    "m_StageCapability": 3,
    "m_Value": 0.0,
    "m_DefaultValue": 0.0,
    "m_Labels": [
        "W"
    ]
}

{
    "m_SGVersion": 0,
    "m_Type": "UnityEditor.ShaderGraph.Vector1MaterialSlot",
    "m_ObjectId": "05bef31cc90e4ac699af5c0e16ba153f",
    "m_Id": 4,
    "m_DisplayName": "A",
    "m_SlotType": 1,
    "m_Hidden": false,
    "m_ShaderOutputName": "A",
    "m_StageCapability": 3,
    "m_Value": 0.0,
    "m_DefaultValue": 0.0,
    "m_Labels": []
}

{
    "m_SGVersion": 0,
    "m_Type": "UnityEditor.ShaderGraph.PropertyNode",
    "m_ObjectId": "06c4a9c82b124fb480e853f49be0ce24",
    "m_Group": {
        "m_Id": ""
    },
    "m_Name": "Property",
    "m_DrawState": {
        "m_Expanded": true,
        "m_Position": {
            "serializedVersion": "2",
            "x": 34.00003433227539,
            "y": -258.6666259765625,
            "width": 105.33329772949219,
            "height": 35.999969482421878
        }
    },
    "m_Slots": [
        {
            "m_Id": "0988741765d84202b3dadd065a1bb7df"
        }
    ],
    "synonyms": [],
    "m_Precision": 0,
    "m_PreviewExpanded": true,
    "m_DismissedVersion": 0,
    "m_PreviewMode": 0,
    "m_CustomColors": {
        "m_SerializableColors": []
    },
    "m_Property": {
        "m_Id": "f2d5b4fdf577440b93dd1924916f7410"
    }
}

{
    "m_SGVersion": 0,
    "m_Type": "UnityEditor.ShaderGraph.MultiplyNode",
    "m_ObjectId": "0707919663084433a906ccde5b9011ac",
    "m_Group": {
        "m_Id": ""
    },
    "m_Name": "Multiply",
    "m_DrawState": {
        "m_Expanded": true,
        "m_Position": {
            "serializedVersion": "2",
            "x": 373.3333435058594,
            "y": 391.33331298828127,
            "width": 209.33328247070313,
            "height": 304.0
        }
    },
    "m_Slots": [
        {
            "m_Id": "be2655371b484d30a9ea362c1c020162"
        },
        {
            "m_Id": "04ff6316c9c5438d82023590d33f1dff"
        },
        {
            "m_Id": "38fdb99c6f9d4d6caddbcb24e757059a"
        }
    ],
    "synonyms": [
        "multiplication",
        "times",
        "x"
    ],
    "m_Precision": 0,
    "m_PreviewExpanded": true,
    "m_DismissedVersion": 0,
    "m_PreviewMode": 0,
    "m_CustomColors": {
        "m_SerializableColors": []
    }
}

{
    "m_SGVersion": 0,
    "m_Type": "UnityEditor.ShaderGraph.Vector1MaterialSlot",
    "m_ObjectId": "07d8d49366fb4aa6a8610bed649d3427",
    "m_Id": 2,
    "m_DisplayName": "Rotation",
    "m_SlotType": 0,
    "m_Hidden": false,
    "m_ShaderOutputName": "Rotation",
    "m_StageCapability": 3,
    "m_Value": 0.0,
    "m_DefaultValue": 0.0,
    "m_Labels": []
}

{
    "m_SGVersion": 0,
    "m_Type": "UnityEditor.ShaderGraph.Vector1MaterialSlot",
    "m_ObjectId": "08f7271e024d476682c67157865bcfa5",
    "m_Id": 2,
    "m_DisplayName": "Cosine Time",
    "m_SlotType": 1,
    "m_Hidden": false,
    "m_ShaderOutputName": "Cosine Time",
    "m_StageCapability": 3,
    "m_Value": 0.0,
    "m_DefaultValue": 0.0,
    "m_Labels": []
}

{
    "m_SGVersion": 0,
    "m_Type": "UnityEditor.ShaderGraph.Vector1MaterialSlot",
    "m_ObjectId": "0988741765d84202b3dadd065a1bb7df",
    "m_Id": 0,
    "m_DisplayName": "zoom",
    "m_SlotType": 1,
    "m_Hidden": false,
    "m_ShaderOutputName": "Out",
    "m_StageCapability": 3,
    "m_Value": 0.0,
    "m_DefaultValue": 0.0,
    "m_Labels": []
}

{
    "m_SGVersion": 0,
    "m_Type": "UnityEditor.ShaderGraph.Vector2MaterialSlot",
    "m_ObjectId": "12944be187f14271bb247a992d180790",
    "m_Id": 4,
    "m_DisplayName": "Out",
    "m_SlotType": 1,
    "m_Hidden": false,
    "m_ShaderOutputName": "Out",
    "m_StageCapability": 3,
    "m_Value": {
        "x": 0.0,
        "y": 0.0
    },
    "m_DefaultValue": {
        "x": 0.0,
        "y": 0.0
    },
    "m_Labels": []
}

{
    "m_SGVersion": 0,
    "m_Type": "UnityEditor.ShaderGraph.Vector2MaterialSlot",
    "m_ObjectId": "12e3822b4c4f4e2fa08df9f3e96aef6d",
    "m_Id": 1,
    "m_DisplayName": "Center",
    "m_SlotType": 0,
    "m_Hidden": false,
    "m_ShaderOutputName": "Center",
    "m_StageCapability": 3,
    "m_Value": {
        "x": 0.5,
        "y": 0.5
    },
    "m_DefaultValue": {
        "x": 0.0,
        "y": 0.0
    },
    "m_Labels": []
}

{
    "m_SGVersion": 0,
    "m_Type": "UnityEditor.ShaderGraph.SubGraphNode",
    "m_ObjectId": "1339033092164945b9edd4e0bf6480a5",
    "m_Group": {
        "m_Id": ""
    },
    "m_Name": "Shifting Gradient Noise",
    "m_DrawState": {
        "m_Expanded": true,
        "m_Position": {
            "serializedVersion": "2",
            "x": 536.6666870117188,
            "y": -88.66668701171875,
            "width": 209.333251953125,
            "height": 328.0
        }
    },
    "m_Slots": [
        {
            "m_Id": "afbd79e8e29c452b966c84f36bcd2ac2"
        },
        {
            "m_Id": "de3a7eb316f44e5fb37a563d573383a9"
        },
        {
            "m_Id": "6a895760331640908f389affc2785187"
        },
        {
            "m_Id": "cea0b2ebc23d410f9323d99d7074da0c"
        }
    ],
    "synonyms": [],
    "m_Precision": 0,
    "m_PreviewExpanded": true,
    "m_DismissedVersion": 0,
    "m_PreviewMode": 0,
    "m_CustomColors": {
        "m_SerializableColors": []
    },
    "m_SerializedSubGraph": "{\n    \"subGraph\": {\n        \"fileID\": -5475051401550479605,\n        \"guid\": \"7348029dfe2231746be8d6d554ace24d\",\n        \"type\": 3\n    }\n}",
    "m_PropertyGuids": [
        "41ada8e8-bfe9-4302-a785-8a26e5ed632a",
        "9e13dfb2-50e2-43e5-8374-3bc21ac36220",
        "d28dc115-dfe6-46bd-8e80-89594e3b4b63"
    ],
    "m_PropertyIds": [
        239501123,
        1068447945,
        -1359829709
    ],
    "m_Dropdowns": [],
    "m_DropdownSelectedEntries": []
}

{
    "m_SGVersion": 0,
    "m_Type": "UnityEditor.ShaderGraph.RotateAboutAxisNode",
    "m_ObjectId": "1635166557614e98bbda7fa4916159b3",
    "m_Group": {
        "m_Id": ""
    },
    "m_Name": "Rotate About Axis",
    "m_DrawState": {
        "m_Expanded": true,
        "m_Position": {
            "serializedVersion": "2",
            "x": 2344.666748046875,
            "y": 287.33331298828127,
            "width": 209.333251953125,
            "height": 364.00006103515627
        }
    },
    "m_Slots": [
        {
            "m_Id": "aa704926ca3841fa81a17ee559f4cad7"
        },
        {
            "m_Id": "920a45968fcd4f19af2af2d89230cea7"
        },
        {
            "m_Id": "b65231d382414e4a81ced4b0cc26f3e6"
        },
        {
            "m_Id": "fe226b40c04b4527a9202ce7a0d69854"
        }
    ],
    "synonyms": [
        "pivot"
    ],
    "m_Precision": 0,
    "m_PreviewExpanded": true,
    "m_DismissedVersion": 0,
    "m_PreviewMode": 0,
    "m_CustomColors": {
        "m_SerializableColors": []
    },
    "m_Unit": 0
}

{
    "m_SGVersion": 0,
    "m_Type": "UnityEditor.ShaderGraph.CategoryData",
    "m_ObjectId": "185ce5920cdf4e9a9f109a409504dfd8",
    "m_Name": "",
    "m_ChildObjectList": [
        {
            "m_Id": "ecebb52bea434a5f9c1842268666264b"
        },
        {
            "m_Id": "a7799f691e454bedb0d10995d987ffea"
        },
        {
            "m_Id": "d3e3a9715bce4343a75f8b77404a8450"
        },
        {
            "m_Id": "f2d5b4fdf577440b93dd1924916f7410"
        }
    ]
}

{
    "m_SGVersion": 0,
    "m_Type": "UnityEditor.ShaderGraph.Vector1MaterialSlot",
    "m_ObjectId": "1dad21544e9b4f36acab2e025d2d4cca",
    "m_Id": 1,
    "m_DisplayName": "number",
    "m_SlotType": 1,
    "m_Hidden": false,
    "m_ShaderOutputName": "number",
    "m_StageCapability": 3,
    "m_Value": 0.0,
    "m_DefaultValue": 0.0,
    "m_Labels": []
}

{
    "m_SGVersion": 0,
    "m_Type": "UnityEditor.ShaderGraph.Vector1MaterialSlot",
    "m_ObjectId": "26dfa5a3421f452199689abb4bf38c23",
    "m_Id": 1068447945,
    "m_DisplayName": "timeOffset",
    "m_SlotType": 0,
    "m_Hidden": false,
    "m_ShaderOutputName": "_timeOffset",
    "m_StageCapability": 3,
    "m_Value": 0.0,
    "m_DefaultValue": 0.0,
    "m_Labels": []
}

{
    "m_SGVersion": 0,
    "m_Type": "UnityEditor.ShaderGraph.DynamicVectorMaterialSlot",
    "m_ObjectId": "27d8fa5602094f8693c93bee8a577e5a",
    "m_Id": 1,
    "m_DisplayName": "Out",
    "m_SlotType": 1,
    "m_Hidden": false,
    "m_ShaderOutputName": "Out",
    "m_StageCapability": 3,
    "m_Value": {
        "x": 0.0,
        "y": 0.0,
        "z": 0.0,
        "w": 0.0
    },
    "m_DefaultValue": {
        "x": 0.0,
        "y": 0.0,
        "z": 0.0,
        "w": 0.0
    }
}

{
    "m_SGVersion": 0,
    "m_Type": "UnityEditor.ShaderGraph.Vector3MaterialSlot",
    "m_ObjectId": "292ed2d074704e5aa2759dbc37ec22e1",
    "m_Id": 0,
    "m_DisplayName": "In",
    "m_SlotType": 0,
    "m_Hidden": false,
    "m_ShaderOutputName": "In",
    "m_StageCapability": 3,
    "m_Value": {
        "x": 0.0,
        "y": 0.0,
        "z": 0.0
    },
    "m_DefaultValue": {
        "x": 0.0,
        "y": 0.0,
        "z": 0.0
    },
    "m_Labels": []
}

{
    "m_SGVersion": 0,
    "m_Type": "UnityEditor.ShaderGraph.Vector1MaterialSlot",
    "m_ObjectId": "2936bd87d6d744c0911e098d56abbb92",
    "m_Id": 239501123,
    "m_DisplayName": "speed",
    "m_SlotType": 0,
    "m_Hidden": false,
    "m_ShaderOutputName": "_speed",
    "m_StageCapability": 3,
    "m_Value": 1.0,
    "m_DefaultValue": 0.0,
    "m_Labels": []
}

{
    "m_SGVersion": 0,
    "m_Type": "UnityEditor.ShaderGraph.DynamicValueMaterialSlot",
    "m_ObjectId": "2d1c7da10c1845fcbc04084dcb83d841",
    "m_Id": 1,
    "m_DisplayName": "B",
    "m_SlotType": 0,
    "m_Hidden": false,
    "m_ShaderOutputName": "B",
    "m_StageCapability": 3,
    "m_Value": {
        "e00": 2.0,
        "e01": 2.0,
        "e02": 2.0,
        "e03": 2.0,
        "e10": 2.0,
        "e11": 2.0,
        "e12": 2.0,
        "e13": 2.0,
        "e20": 2.0,
        "e21": 2.0,
        "e22": 2.0,
        "e23": 2.0,
        "e30": 2.0,
        "e31": 2.0,
        "e32": 2.0,
        "e33": 2.0
    },
    "m_DefaultValue": {
        "e00": 1.0,
        "e01": 0.0,
        "e02": 0.0,
        "e03": 0.0,
        "e10": 0.0,
        "e11": 1.0,
        "e12": 0.0,
        "e13": 0.0,
        "e20": 0.0,
        "e21": 0.0,
        "e22": 1.0,
        "e23": 0.0,
        "e30": 0.0,
        "e31": 0.0,
        "e32": 0.0,
        "e33": 1.0
    }
}

{
    "m_SGVersion": 0,
    "m_Type": "UnityEditor.ShaderGraph.Vector2MaterialSlot",
    "m_ObjectId": "2ed9411420ae40e694d66bcee6b9ec8c",
    "m_Id": 3,
    "m_DisplayName": "Offset",
    "m_SlotType": 0,
    "m_Hidden": false,
    "m_ShaderOutputName": "Offset",
    "m_StageCapability": 3,
    "m_Value": {
        "x": -0.5,
        "y": -0.5
    },
    "m_DefaultValue": {
        "x": 0.0,
        "y": 0.0
    },
    "m_Labels": []
}

{
    "m_SGVersion": 0,
    "m_Type": "UnityEditor.ShaderGraph.Vector2MaterialSlot",
    "m_ObjectId": "3301de92474d4a3aba6e890008b017a1",
    "m_Id": 2,
    "m_DisplayName": "Strength",
    "m_SlotType": 0,
    "m_Hidden": false,
    "m_ShaderOutputName": "Strength",
    "m_StageCapability": 3,
    "m_Value": {
        "x": 10.0,
        "y": 10.0
    },
    "m_DefaultValue": {
        "x": 0.0,
        "y": 0.0
    },
    "m_Labels": []
}

{
    "m_SGVersion": 0,
    "m_Type": "UnityEditor.ShaderGraph.Vector1MaterialSlot",
    "m_ObjectId": "361c24fe2f44461fa5bde76497e1c522",
    "m_Id": 0,
    "m_DisplayName": "speed",
    "m_SlotType": 1,
    "m_Hidden": false,
    "m_ShaderOutputName": "Out",
    "m_StageCapability": 3,
    "m_Value": 0.0,
    "m_DefaultValue": 0.0,
    "m_Labels": []
}

{
    "m_SGVersion": 0,
    "m_Type": "UnityEditor.ShaderGraph.DynamicValueMaterialSlot",
    "m_ObjectId": "38fdb99c6f9d4d6caddbcb24e757059a",
    "m_Id": 2,
    "m_DisplayName": "Out",
    "m_SlotType": 1,
    "m_Hidden": false,
    "m_ShaderOutputName": "Out",
    "m_StageCapability": 3,
    "m_Value": {
        "e00": 0.0,
        "e01": 0.0,
        "e02": 0.0,
        "e03": 0.0,
        "e10": 0.0,
        "e11": 0.0,
        "e12": 0.0,
        "e13": 0.0,
        "e20": 0.0,
        "e21": 0.0,
        "e22": 0.0,
        "e23": 0.0,
        "e30": 0.0,
        "e31": 0.0,
        "e32": 0.0,
        "e33": 0.0
    },
    "m_DefaultValue": {
        "e00": 1.0,
        "e01": 0.0,
        "e02": 0.0,
        "e03": 0.0,
        "e10": 0.0,
        "e11": 1.0,
        "e12": 0.0,
        "e13": 0.0,
        "e20": 0.0,
        "e21": 0.0,
        "e22": 1.0,
        "e23": 0.0,
        "e30": 0.0,
        "e31": 0.0,
        "e32": 0.0,
        "e33": 1.0
    }
}

{
    "m_SGVersion": 0,
    "m_Type": "UnityEditor.ShaderGraph.Vector4MaterialSlot",
    "m_ObjectId": "3c9b4af98bb1405cad7425229cbe4166",
    "m_Id": 1,
    "m_DisplayName": "color",
    "m_SlotType": 0,
    "m_Hidden": false,
    "m_ShaderOutputName": "color",
    "m_StageCapability": 3,
    "m_Value": {
        "x": 0.0,
        "y": 0.0,
        "z": 0.0,
        "w": 0.0
    },
    "m_DefaultValue": {
        "x": 0.0,
        "y": 0.0,
        "z": 0.0,
        "w": 0.0
    },
    "m_Labels": []
}

{
    "m_SGVersion": 0,
    "m_Type": "UnityEditor.ShaderGraph.DynamicVectorMaterialSlot",
    "m_ObjectId": "3e9e2ddfe72e46c0be7ff51d80f1eb0a",
    "m_Id": 0,
    "m_DisplayName": "In",
    "m_SlotType": 0,
    "m_Hidden": false,
    "m_ShaderOutputName": "In",
    "m_StageCapability": 3,
    "m_Value": {
        "x": 0.0,
        "y": 0.0,
        "z": 0.0,
        "w": 0.0
    },
    "m_DefaultValue": {
        "x": 0.0,
        "y": 0.0,
        "z": 0.0,
        "w": 0.0
    }
}

{
    "m_SGVersion": 0,
    "m_Type": "UnityEditor.ShaderGraph.Vector4Node",
    "m_ObjectId": "41504a5aa12e415382d9e35255b0c694",
    "m_Group": {
        "m_Id": ""
    },
    "m_Name": "Vector 4",
    "m_DrawState": {
        "m_Expanded": true,
        "m_Position": {
            "serializedVersion": "2",
            "x": 3793.333251953125,
            "y": 153.33334350585938,
            "width": 132.666748046875,
            "height": 150.66665649414063
        }
    },
    "m_Slots": [
        {
            "m_Id": "88efef90cffb4083ba4368b2a2daa4ac"
        },
        {
            "m_Id": "9f8b515368a2475dab77bcbfad3078ba"
        },
        {
            "m_Id": "75d48d535e094d72b73e867c16f57537"
        },
        {
            "m_Id": "056bf3fcf0f84283880c193a8206dcb8"
        },
        {
            "m_Id": "c2af25ec19f34ab2bbced2b9fefce37c"
        }
    ],
    "synonyms": [
        "4",
        "v4",
        "vec4",
        "float4"
    ],
    "m_Precision": 0,
    "m_PreviewExpanded": true,
    "m_DismissedVersion": 0,
    "m_PreviewMode": 0,
    "m_CustomColors": {
        "m_SerializableColors": []
    },
    "m_Value": {
        "x": 0.0,
        "y": 0.0,
        "z": 0.0,
        "w": 0.0
    }
}

{
    "m_SGVersion": 0,
    "m_Type": "UnityEditor.ShaderGraph.Vector2MaterialSlot",
    "m_ObjectId": "43cde35f815745168af27a02cf448914",
    "m_Id": 2,
    "m_DisplayName": "Strength",
    "m_SlotType": 0,
    "m_Hidden": false,
    "m_ShaderOutputName": "Strength",
    "m_StageCapability": 3,
    "m_Value": {
        "x": -200.0,
        "y": -200.0
    },
    "m_DefaultValue": {
        "x": 0.0,
        "y": 0.0
    },
    "m_Labels": []
}

{
    "m_SGVersion": 0,
    "m_Type": "UnityEditor.ShaderGraph.Vector1MaterialSlot",
    "m_ObjectId": "45bccceef16e4b6c957f9a44a91c460e",
    "m_Id": 1068447945,
    "m_DisplayName": "timeOffset",
    "m_SlotType": 0,
    "m_Hidden": false,
    "m_ShaderOutputName": "_timeOffset",
    "m_StageCapability": 3,
    "m_Value": 0.75,
    "m_DefaultValue": 0.0,
    "m_Labels": []
}

{
    "m_SGVersion": 0,
    "m_Type": "UnityEditor.ShaderGraph.Vector1MaterialSlot",
    "m_ObjectId": "4814c3a17509476683c0a995b25483be",
    "m_Id": 4,
    "m_DisplayName": "Smooth Delta",
    "m_SlotType": 1,
    "m_Hidden": false,
    "m_ShaderOutputName": "Smooth Delta",
    "m_StageCapability": 3,
    "m_Value": 0.0,
    "m_DefaultValue": 0.0,
    "m_Labels": []
}

{
    "m_SGVersion": 0,
    "m_Type": "UnityEditor.ShaderGraph.DynamicVectorMaterialSlot",
    "m_ObjectId": "482f59a23bec4f44bf12e235b80dfa21",
    "m_Id": 0,
    "m_DisplayName": "In",
    "m_SlotType": 0,
    "m_Hidden": false,
    "m_ShaderOutputName": "In",
    "m_StageCapability": 3,
    "m_Value": {
        "x": 0.0,
        "y": 0.0,
        "z": 0.0,
        "w": 0.0
    },
    "m_DefaultValue": {
        "x": 0.0,
        "y": 0.0,
        "z": 0.0,
        "w": 0.0
    }
}

{
    "m_SGVersion": 0,
    "m_Type": "UnityEditor.ShaderGraph.Vector1MaterialSlot",
    "m_ObjectId": "488fa2fc65b04f66be9ef0a68a99eee5",
    "m_Id": 2,
    "m_DisplayName": "G",
    "m_SlotType": 1,
    "m_Hidden": false,
    "m_ShaderOutputName": "G",
    "m_StageCapability": 3,
    "m_Value": 0.0,
    "m_DefaultValue": 0.0,
    "m_Labels": []
}

{
    "m_SGVersion": 0,
    "m_Type": "UnityEditor.ShaderGraph.PropertyNode",
    "m_ObjectId": "4d1e17fa57d34f22b46e21f4acd60f64",
    "m_Group": {
        "m_Id": ""
    },
    "m_Name": "Property",
    "m_DrawState": {
        "m_Expanded": true,
        "m_Position": {
            "serializedVersion": "2",
            "x": -435.9999694824219,
            "y": 171.99998474121095,
            "width": 108.6666259765625,
            "height": 36.00004577636719
        }
    },
    "m_Slots": [
        {
            "m_Id": "361c24fe2f44461fa5bde76497e1c522"
        }
    ],
    "synonyms": [],
    "m_Precision": 0,
    "m_PreviewExpanded": true,
    "m_DismissedVersion": 0,
    "m_PreviewMode": 0,
    "m_CustomColors": {
        "m_SerializableColors": []
    },
    "m_Property": {
        "m_Id": "a7799f691e454bedb0d10995d987ffea"
    }
}

{
    "m_SGVersion": 0,
    "m_Type": "UnityEditor.ShaderGraph.NegateNode",
    "m_ObjectId": "5099683ce1724d46a2d14bdd95ac66ce",
    "m_Group": {
        "m_Id": ""
    },
    "m_Name": "Negate",
    "m_DrawState": {
        "m_Expanded": true,
        "m_Position": {
            "serializedVersion": "2",
            "x": 33.99995040893555,
            "y": 130.66661071777345,
            "width": 209.33335876464845,
            "height": 280.0001220703125
        }
    },
    "m_Slots": [
        {
            "m_Id": "482f59a23bec4f44bf12e235b80dfa21"
        },
        {
            "m_Id": "27d8fa5602094f8693c93bee8a577e5a"
        }
    ],
    "synonyms": [
        "invert",
        "opposite"
    ],
    "m_Precision": 0,
    "m_PreviewExpanded": true,
    "m_DismissedVersion": 0,
    "m_PreviewMode": 0,
    "m_CustomColors": {
        "m_SerializableColors": []
    }
}

{
    "m_SGVersion": 0,
    "m_Type": "UnityEditor.ShaderGraph.Vector3MaterialSlot",
    "m_ObjectId": "54cc8793083b4111983bcf5f66db833b",
    "m_Id": 4,
    "m_DisplayName": "Out",
    "m_SlotType": 1,
    "m_Hidden": false,
    "m_ShaderOutputName": "Out",
    "m_StageCapability": 3,
    "m_Value": {
        "x": 0.0,
        "y": 0.0,
        "z": 0.0
    },
    "m_DefaultValue": {
        "x": 0.0,
        "y": 0.0,
        "z": 0.0
    },
    "m_Labels": []
}

{
    "m_SGVersion": 0,
    "m_Type": "UnityEditor.ShaderGraph.SubGraphNode",
    "m_ObjectId": "58f19dcf9dd14d94a4569ca73d3606ff",
    "m_Group": {
        "m_Id": ""
    },
    "m_Name": "Shifting Gradient Noise",
    "m_DrawState": {
        "m_Expanded": true,
        "m_Position": {
            "serializedVersion": "2",
            "x": 855.9999389648438,
            "y": -650.6666870117188,
            "width": 209.33343505859376,
            "height": 328.0
        }
    },
    "m_Slots": [
        {
            "m_Id": "b52744fcc12940bba46a08466980f34f"
        },
        {
            "m_Id": "70713014700a4685bf1051a8a2a5e4ad"
        },
        {
            "m_Id": "d4a64fa679024436a2b9bf76ab109971"
        },
        {
            "m_Id": "e2bbf3e1a3bf490aa639c5071c9dfca9"
        }
    ],
    "synonyms": [],
    "m_Precision": 0,
    "m_PreviewExpanded": true,
    "m_DismissedVersion": 0,
    "m_PreviewMode": 0,
    "m_CustomColors": {
        "m_SerializableColors": []
    },
    "m_SerializedSubGraph": "{\n    \"subGraph\": {\n        \"fileID\": -5475051401550479605,\n        \"guid\": \"7348029dfe2231746be8d6d554ace24d\",\n        \"type\": 3\n    }\n}",
    "m_PropertyGuids": [
        "41ada8e8-bfe9-4302-a785-8a26e5ed632a",
        "9e13dfb2-50e2-43e5-8374-3bc21ac36220",
        "d28dc115-dfe6-46bd-8e80-89594e3b4b63"
    ],
    "m_PropertyIds": [
        239501123,
        1068447945,
        -1359829709
    ],
    "m_Dropdowns": [],
    "m_DropdownSelectedEntries": []
}

{
    "m_SGVersion": 0,
    "m_Type": "UnityEditor.ShaderGraph.Vector1MaterialSlot",
    "m_ObjectId": "60a1408e5c474780b56e8e391733e5ae",
    "m_Id": 1,
    "m_DisplayName": "Sine Time",
    "m_SlotType": 1,
    "m_Hidden": false,
    "m_ShaderOutputName": "Sine Time",
    "m_StageCapability": 3,
    "m_Value": 0.0,
    "m_DefaultValue": 0.0,
    "m_Labels": []
}

{
    "m_SGVersion": 0,
    "m_Type": "UnityEditor.ShaderGraph.Vector1MaterialSlot",
    "m_ObjectId": "6a895760331640908f389affc2785187",
    "m_Id": -1359829709,
    "m_DisplayName": "zoom",
    "m_SlotType": 0,
    "m_Hidden": false,
    "m_ShaderOutputName": "_zoom",
    "m_StageCapability": 3,
    "m_Value": 8.0,
    "m_DefaultValue": 0.0,
    "m_Labels": []
}

{
    "m_SGVersion": 0,
    "m_Type": "UnityEditor.ShaderGraph.SplitNode",
    "m_ObjectId": "6f2cee51cc4841d6ac74d234792520de",
    "m_Group": {
        "m_Id": ""
    },
    "m_Name": "Split",
    "m_DrawState": {
        "m_Expanded": true,
        "m_Position": {
            "serializedVersion": "2",
            "x": 3474.0,
            "y": 402.0,
            "width": 120.666748046875,
            "height": 150.66668701171876
        }
    },
    "m_Slots": [
        {
            "m_Id": "bced167563614e6f92f9029e2f7192f8"
        },
        {
            "m_Id": "732b17ab67df4a379e4b79999142170b"
        },
        {
            "m_Id": "7b4a9693d5874008878329b9185c6b0e"
        },
        {
            "m_Id": "cdbd4ddb7d4448c3892ff9dba8f4f274"
        },
        {
            "m_Id": "05bef31cc90e4ac699af5c0e16ba153f"
        }
    ],
    "synonyms": [
        "separate"
    ],
    "m_Precision": 0,
    "m_PreviewExpanded": true,
    "m_DismissedVersion": 0,
    "m_PreviewMode": 0,
    "m_CustomColors": {
        "m_SerializableColors": []
    }
}

{
    "m_SGVersion": 0,
    "m_Type": "UnityEditor.ShaderGraph.DynamicVectorMaterialSlot",
    "m_ObjectId": "6f5cdbb6f52a4c0d9c390310dea6984c",
    "m_Id": 2,
    "m_DisplayName": "Out",
    "m_SlotType": 1,
    "m_Hidden": false,
    "m_ShaderOutputName": "Out",
    "m_StageCapability": 3,
    "m_Value": {
        "x": 0.0,
        "y": 0.0,
        "z": 0.0,
        "w": 0.0
    },
    "m_DefaultValue": {
        "x": 0.0,
        "y": 0.0,
        "z": 0.0,
        "w": 0.0
    }
}

{
    "m_SGVersion": 0,
    "m_Type": "UnityEditor.ShaderGraph.Vector1MaterialSlot",
    "m_ObjectId": "70713014700a4685bf1051a8a2a5e4ad",
    "m_Id": 1068447945,
    "m_DisplayName": "timeOffset",
    "m_SlotType": 0,
    "m_Hidden": false,
    "m_ShaderOutputName": "_timeOffset",
    "m_StageCapability": 3,
    "m_Value": 0.0,
    "m_DefaultValue": 0.0,
    "m_Labels": []
}

{
    "m_SGVersion": 0,
    "m_Type": "UnityEditor.ShaderGraph.Vector1MaterialSlot",
    "m_ObjectId": "732b17ab67df4a379e4b79999142170b",
    "m_Id": 1,
    "m_DisplayName": "R",
    "m_SlotType": 1,
    "m_Hidden": false,
    "m_ShaderOutputName": "R",
    "m_StageCapability": 3,
    "m_Value": 0.0,
    "m_DefaultValue": 0.0,
    "m_Labels": []
}

{
    "m_SGVersion": 0,
    "m_Type": "UnityEditor.ShaderGraph.Vector1MaterialSlot",
    "m_ObjectId": "757657e2ea0345248097df71538c2d27",
    "m_Id": 3,
    "m_DisplayName": "Range",
    "m_SlotType": 0,
    "m_Hidden": false,
    "m_ShaderOutputName": "Range",
    "m_StageCapability": 3,
    "m_Value": 0.0,
    "m_DefaultValue": 0.0,
    "m_Labels": []
}

{
    "m_SGVersion": 0,
    "m_Type": "UnityEditor.ShaderGraph.Vector1MaterialSlot",
    "m_ObjectId": "75d48d535e094d72b73e867c16f57537",
    "m_Id": 3,
    "m_DisplayName": "Z",
    "m_SlotType": 0,
    "m_Hidden": false,
    "m_ShaderOutputName": "Z",
    "m_StageCapability": 3,
    "m_Value": 0.0,
    "m_DefaultValue": 0.0,
    "m_Labels": [
        "Z"
    ]
}

{
    "m_SGVersion": 0,
    "m_Type": "UnityEditor.ShaderGraph.SpherizeNode",
    "m_ObjectId": "75ee69b87c4a44d2af63b68d2c1df419",
    "m_Group": {
        "m_Id": ""
    },
    "m_Name": "Spherize",
    "m_DrawState": {
        "m_Expanded": true,
        "m_Position": {
            "serializedVersion": "2",
            "x": 1684.0,
            "y": 726.0001220703125,
            "width": 209.33349609375,
            "height": 352.0
        }
    },
    "m_Slots": [
        {
            "m_Id": "b235847011a04b0788ed6bf7e85bd46d"
        },
        {
            "m_Id": "fd92a6c4f17b444eaf14fb98e8ea5071"
        },
        {
            "m_Id": "3301de92474d4a3aba6e890008b017a1"
        },
        {
            "m_Id": "febc57f068544c16abc00b97f67328f8"
        },
        {
            "m_Id": "12944be187f14271bb247a992d180790"
        }
    ],
    "synonyms": [],
    "m_Precision": 0,
    "m_PreviewExpanded": true,
    "m_DismissedVersion": 0,
    "m_PreviewMode": 0,
    "m_CustomColors": {
        "m_SerializableColors": []
    }
}

{
    "m_SGVersion": 0,
    "m_Type": "UnityEditor.ShaderGraph.PropertyNode",
    "m_ObjectId": "76eb812772a442f4bdc2a2c262b5da2f",
    "m_Group": {
        "m_Id": ""
    },
    "m_Name": "Property",
    "m_DrawState": {
        "m_Expanded": true,
        "m_Position": {
            "serializedVersion": "2",
            "x": 2090.0,
            "y": 66.00000762939453,
            "width": 96.0,
            "height": 36.00001525878906
        }
    },
    "m_Slots": [
        {
            "m_Id": "d8bc3d2f60794f5ebc1639c28b0f53dd"
        }
    ],
    "synonyms": [],
    "m_Precision": 0,
    "m_PreviewExpanded": true,
    "m_DismissedVersion": 0,
    "m_PreviewMode": 0,
    "m_CustomColors": {
        "m_SerializableColors": []
    },
    "m_Property": {
        "m_Id": "ecebb52bea434a5f9c1842268666264b"
    }
}

{
    "m_SGVersion": 0,
    "m_Type": "UnityEditor.ShaderGraph.Vector1MaterialSlot",
    "m_ObjectId": "7b4a9693d5874008878329b9185c6b0e",
    "m_Id": 2,
    "m_DisplayName": "G",
    "m_SlotType": 1,
    "m_Hidden": false,
    "m_ShaderOutputName": "G",
    "m_StageCapability": 3,
    "m_Value": 0.0,
    "m_DefaultValue": 0.0,
    "m_Labels": []
}

{
    "m_SGVersion": 0,
    "m_Type": "UnityEditor.ShaderGraph.UVMaterialSlot",
    "m_ObjectId": "7ffd8f63b11344b790bc863171145e2a",
    "m_Id": 0,
    "m_DisplayName": "UV",
    "m_SlotType": 0,
    "m_Hidden": false,
    "m_ShaderOutputName": "UV",
    "m_StageCapability": 3,
    "m_Value": {
        "x": 0.0,
        "y": 0.0
    },
    "m_DefaultValue": {
        "x": 0.0,
        "y": 0.0
    },
    "m_Labels": [],
    "m_Channel": 0
}

{
    "m_SGVersion": 0,
    "m_Type": "UnityEditor.ShaderGraph.Vector2MaterialSlot",
    "m_ObjectId": "81d98abf30704f0fbcde4dd5aa0353ac",
    "m_Id": 3,
    "m_DisplayName": "Out",
    "m_SlotType": 1,
    "m_Hidden": false,
    "m_ShaderOutputName": "Out",
    "m_StageCapability": 3,
    "m_Value": {
        "x": 0.0,
        "y": 0.0
    },
    "m_DefaultValue": {
        "x": 0.0,
        "y": 0.0
    },
    "m_Labels": []
}

{
    "m_SGVersion": 0,
    "m_Type": "UnityEditor.ShaderGraph.Vector1MaterialSlot",
    "m_ObjectId": "88efef90cffb4083ba4368b2a2daa4ac",
    "m_Id": 1,
    "m_DisplayName": "X",
    "m_SlotType": 0,
    "m_Hidden": false,
    "m_ShaderOutputName": "X",
    "m_StageCapability": 3,
    "m_Value": 0.0,
    "m_DefaultValue": 0.0,
    "m_Labels": []
}

{
    "m_SGVersion": 0,
    "m_Type": "UnityEditor.ShaderGraph.Vector1MaterialSlot",
    "m_ObjectId": "8a625d02d221424eb63491d5c1912e4f",
    "m_Id": 3,
    "m_DisplayName": "B",
    "m_SlotType": 1,
    "m_Hidden": false,
    "m_ShaderOutputName": "B",
    "m_StageCapability": 3,
    "m_Value": 0.0,
    "m_DefaultValue": 0.0,
    "m_Labels": []
}

{
    "m_SGVersion": 0,
    "m_Type": "UnityEditor.ShaderGraph.Vector1MaterialSlot",
    "m_ObjectId": "8fa2ca82d5de46debcf5c9c17aa00a38",
    "m_Id": 0,
    "m_DisplayName": "timeOffset",
    "m_SlotType": 1,
    "m_Hidden": false,
    "m_ShaderOutputName": "Out",
    "m_StageCapability": 3,
    "m_Value": 0.0,
    "m_DefaultValue": 0.0,
    "m_Labels": []
}

{
    "m_SGVersion": 0,
    "m_Type": "UnityEditor.ShaderGraph.Vector3MaterialSlot",
    "m_ObjectId": "920a45968fcd4f19af2af2d89230cea7",
    "m_Id": 1,
    "m_DisplayName": "Axis",
    "m_SlotType": 0,
    "m_Hidden": false,
    "m_ShaderOutputName": "Axis",
    "m_StageCapability": 3,
    "m_Value": {
        "x": 1.0,
        "y": -1.0,
        "z": 1.0
    },
    "m_DefaultValue": {
        "x": 0.0,
        "y": 0.0,
        "z": 0.0
    },
    "m_Labels": []
}

{
    "m_SGVersion": 0,
    "m_Type": "UnityEditor.ShaderGraph.ColorRGBMaterialSlot",
    "m_ObjectId": "9369047928a14e36a954828daede0aa3",
    "m_Id": 2,
    "m_DisplayName": "To",
    "m_SlotType": 0,
    "m_Hidden": false,
    "m_ShaderOutputName": "To",
    "m_StageCapability": 3,
    "m_Value": {
        "x": 0.0,
        "y": 0.0,
        "z": 0.0
    },
    "m_DefaultValue": {
        "x": 0.0,
        "y": 0.0,
        "z": 0.0
    },
    "m_Labels": [],
    "m_ColorMode": 0,
    "m_DefaultColor": {
        "r": 0.0,
        "g": 0.0,
        "b": 0.0,
        "a": 0.0
    }
}

{
    "m_SGVersion": 0,
    "m_Type": "UnityEditor.ShaderGraph.ReplaceColorNode",
    "m_ObjectId": "94d2b4a951cc401890b48035c357e215",
    "m_Group": {
        "m_Id": ""
    },
    "m_Name": "Replace Color",
    "m_DrawState": {
        "m_Expanded": true,
        "m_Position": {
            "serializedVersion": "2",
            "x": 2695.333251953125,
            "y": 287.3333435058594,
            "width": 209.33349609375,
            "height": 376.0000305175781
        }
    },
    "m_Slots": [
        {
            "m_Id": "292ed2d074704e5aa2759dbc37ec22e1"
        },
        {
            "m_Id": "e7a3205179424763a9b8531c3f3dc905"
        },
        {
            "m_Id": "9369047928a14e36a954828daede0aa3"
        },
        {
            "m_Id": "757657e2ea0345248097df71538c2d27"
        },
        {
            "m_Id": "9b204c130c2c41909e8273f8cc8ee919"
        },
        {
            "m_Id": "54cc8793083b4111983bcf5f66db833b"
        }
    ],
    "synonyms": [],
    "m_Precision": 0,
    "m_PreviewExpanded": true,
    "m_DismissedVersion": 0,
    "m_PreviewMode": 0,
    "m_CustomColors": {
        "m_SerializableColors": []
    }
}

{
    "m_SGVersion": 0,
    "m_Type": "UnityEditor.ShaderGraph.Vector1MaterialSlot",
    "m_ObjectId": "9b204c130c2c41909e8273f8cc8ee919",
    "m_Id": 5,
    "m_DisplayName": "Fuzziness",
    "m_SlotType": 0,
    "m_Hidden": false,
    "m_ShaderOutputName": "Fuzziness",
    "m_StageCapability": 3,
    "m_Value": 1.0,
    "m_DefaultValue": 0.0,
    "m_Labels": []
}

{
    "m_SGVersion": 0,
    "m_Type": "UnityEditor.ShaderGraph.DynamicVectorMaterialSlot",
    "m_ObjectId": "9b39dc7facb04ed09ee0ca22e78a3173",
    "m_Id": 1,
    "m_DisplayName": "B",
    "m_SlotType": 0,
    "m_Hidden": false,
    "m_ShaderOutputName": "B",
    "m_StageCapability": 3,
    "m_Value": {
        "x": 9.0,
        "y": 0.0,
        "z": 0.0,
        "w": 0.0
    },
    "m_DefaultValue": {
        "x": 0.0,
        "y": 0.0,
        "z": 0.0,
        "w": 0.0
    }
}

{
    "m_SGVersion": 0,
    "m_Type": "UnityEditor.ShaderGraph.Vector1MaterialSlot",
    "m_ObjectId": "9df41bd9d8c74b6890b6e84de1364b53",
    "m_Id": 239501123,
    "m_DisplayName": "speed",
    "m_SlotType": 0,
    "m_Hidden": false,
    "m_ShaderOutputName": "_speed",
    "m_StageCapability": 3,
    "m_Value": 1.0,
    "m_DefaultValue": 0.0,
    "m_Labels": []
}

{
    "m_SGVersion": 0,
    "m_Type": "UnityEditor.ShaderGraph.Vector1MaterialSlot",
    "m_ObjectId": "9f8b515368a2475dab77bcbfad3078ba",
    "m_Id": 2,
    "m_DisplayName": "Y",
    "m_SlotType": 0,
    "m_Hidden": false,
    "m_ShaderOutputName": "Y",
    "m_StageCapability": 3,
    "m_Value": 0.0,
    "m_DefaultValue": 0.0,
    "m_Labels": [
        "Y"
    ]
}

{
    "m_SGVersion": 0,
    "m_Type": "UnityEditor.ShaderGraph.Vector1MaterialSlot",
    "m_ObjectId": "a00d1bc1db814f168206bf645c26378c",
    "m_Id": 1,
    "m_DisplayName": "R",
    "m_SlotType": 1,
    "m_Hidden": false,
    "m_ShaderOutputName": "R",
    "m_StageCapability": 3,
    "m_Value": 0.0,
    "m_DefaultValue": 0.0,
    "m_Labels": []
}

{
    "m_SGVersion": 0,
    "m_Type": "UnityEditor.ShaderGraph.SplitNode",
    "m_ObjectId": "a2b8049b547c48c9adbb98a378938de5",
    "m_Group": {
        "m_Id": ""
    },
    "m_Name": "Split",
    "m_DrawState": {
        "m_Expanded": true,
        "m_Position": {
            "serializedVersion": "2",
            "x": 2661.3330078125,
            "y": 38.66670227050781,
            "width": 120.666748046875,
            "height": 150.66665649414063
        }
    },
    "m_Slots": [
        {
            "m_Id": "3e9e2ddfe72e46c0be7ff51d80f1eb0a"
        },
        {
            "m_Id": "a00d1bc1db814f168206bf645c26378c"
        },
        {
            "m_Id": "488fa2fc65b04f66be9ef0a68a99eee5"
        },
        {
            "m_Id": "8a625d02d221424eb63491d5c1912e4f"
        },
        {
            "m_Id": "dc7d766bb93e4a1b904bc881ebcf9c82"
        }
    ],
    "synonyms": [
        "separate"
    ],
    "m_Precision": 0,
    "m_PreviewExpanded": true,
    "m_DismissedVersion": 0,
    "m_PreviewMode": 0,
    "m_CustomColors": {
        "m_SerializableColors": []
    }
}

{
    "m_SGVersion": 0,
    "m_Type": "UnityEditor.ShaderGraph.AddNode",
    "m_ObjectId": "a3560c02d83e43aaaf1c87794fa387e6",
    "m_Group": {
        "m_Id": ""
    },
    "m_Name": "Add",
    "m_DrawState": {
        "m_Expanded": true,
        "m_Position": {
            "serializedVersion": "2",
            "x": -435.999755859375,
            "y": 391.3331298828125,
            "width": 209.3333740234375,
            "height": 304.000244140625
        }
    },
    "m_Slots": [
        {
            "m_Id": "f6b9376d406b470d96ee247c9a374537"
        },
        {
            "m_Id": "9b39dc7facb04ed09ee0ca22e78a3173"
        },
        {
            "m_Id": "6f5cdbb6f52a4c0d9c390310dea6984c"
        }
    ],
    "synonyms": [
        "addition",
        "sum",
        "plus"
    ],
    "m_Precision": 0,
    "m_PreviewExpanded": true,
    "m_DismissedVersion": 0,
    "m_PreviewMode": 0,
    "m_CustomColors": {
        "m_SerializableColors": []
    }
}

{
    "m_SGVersion": 0,
    "m_Type": "UnityEditor.ShaderGraph.Vector1MaterialSlot",
    "m_ObjectId": "a72dfe49964948e5a21737fc82614d06",
    "m_Id": 1,
    "m_DisplayName": "number",
    "m_SlotType": 1,
    "m_Hidden": false,
    "m_ShaderOutputName": "number",
    "m_StageCapability": 3,
    "m_Value": 0.0,
    "m_DefaultValue": 0.0,
    "m_Labels": []
}

{
    "m_SGVersion": 1,
    "m_Type": "UnityEditor.ShaderGraph.Internal.Vector1ShaderProperty",
    "m_ObjectId": "a7799f691e454bedb0d10995d987ffea",
    "m_Guid": {
        "m_GuidSerialized": "6c8af658-017e-4f69-ba96-be65d5ee91ca"
    },
    "m_Name": "speed",
    "m_DefaultRefNameVersion": 1,
    "m_RefNameGeneratedByDisplayName": "speed",
    "m_DefaultReferenceName": "_speed",
    "m_OverrideReferenceName": "",
    "m_GeneratePropertyBlock": true,
    "m_UseCustomSlotLabel": false,
    "m_CustomSlotLabel": "",
    "m_DismissedVersion": 0,
    "m_Precision": 0,
    "overrideHLSLDeclaration": false,
    "hlslDeclarationOverride": 0,
    "m_Hidden": false,
    "m_Value": 1.0,
    "m_FloatType": 0,
    "m_RangeValues": {
        "x": 0.0,
        "y": 1.0
    }
}

{
    "m_SGVersion": 0,
    "m_Type": "UnityEditor.ShaderGraph.Vector3MaterialSlot",
    "m_ObjectId": "aa704926ca3841fa81a17ee559f4cad7",
    "m_Id": 0,
    "m_DisplayName": "In",
    "m_SlotType": 0,
    "m_Hidden": false,
    "m_ShaderOutputName": "In",
    "m_StageCapability": 3,
    "m_Value": {
        "x": 0.0,
        "y": 0.0,
        "z": 0.0
    },
    "m_DefaultValue": {
        "x": 0.0,
        "y": 0.0,
        "z": 0.0
    },
    "m_Labels": []
}

{
    "m_SGVersion": 0,
    "m_Type": "UnityEditor.ShaderGraph.SpherizeNode",
    "m_ObjectId": "ab93c063c2e2487fa87b78accf2799c3",
    "m_Group": {
        "m_Id": ""
    },
    "m_Name": "Spherize",
    "m_DrawState": {
        "m_Expanded": true,
        "m_Position": {
            "serializedVersion": "2",
            "x": 1236.032470703125,
            "y": 374.03253173828127,
            "width": 209.333251953125,
            "height": 351.9999694824219
        }
    },
    "m_Slots": [
        {
            "m_Id": "dfba16bae58643b98a6500b2d2e01264"
        },
        {
            "m_Id": "12e3822b4c4f4e2fa08df9f3e96aef6d"
        },
        {
            "m_Id": "43cde35f815745168af27a02cf448914"
        },
        {
            "m_Id": "2ed9411420ae40e694d66bcee6b9ec8c"
        },
        {
            "m_Id": "b5bfaca0e2f44163ac4538a7c205bc56"
        }
    ],
    "synonyms": [],
    "m_Precision": 0,
    "m_PreviewExpanded": true,
    "m_DismissedVersion": 0,
    "m_PreviewMode": 0,
    "m_CustomColors": {
        "m_SerializableColors": []
    }
}

{
    "m_SGVersion": 0,
    "m_Type": "UnityEditor.ShaderGraph.Vector1MaterialSlot",
    "m_ObjectId": "afbd79e8e29c452b966c84f36bcd2ac2",
    "m_Id": 239501123,
    "m_DisplayName": "speed",
    "m_SlotType": 0,
    "m_Hidden": false,
    "m_ShaderOutputName": "_speed",
    "m_StageCapability": 3,
    "m_Value": -1.0,
    "m_DefaultValue": 0.0,
    "m_Labels": []
}

{
    "m_SGVersion": 0,
    "m_Type": "UnityEditor.ShaderGraph.SubGraphOutputNode",
    "m_ObjectId": "b1ab9cd245c44d79815e1e08487c43bd",
    "m_Group": {
        "m_Id": ""
    },
    "m_Name": "Output",
    "m_DrawState": {
        "m_Expanded": true,
        "m_Position": {
            "serializedVersion": "2",
            "x": 4033.333251953125,
            "y": 264.6667175292969,
            "width": 86.666748046875,
            "height": 78.66665649414063
        }
    },
    "m_Slots": [
        {
            "m_Id": "3c9b4af98bb1405cad7425229cbe4166"
        }
    ],
    "synonyms": [],
    "m_Precision": 0,
    "m_PreviewExpanded": true,
    "m_DismissedVersion": 0,
    "m_PreviewMode": 0,
    "m_CustomColors": {
        "m_SerializableColors": []
    },
    "IsFirstSlotValid": true
}

{
    "m_SGVersion": 0,
    "m_Type": "UnityEditor.ShaderGraph.UVMaterialSlot",
    "m_ObjectId": "b235847011a04b0788ed6bf7e85bd46d",
    "m_Id": 0,
    "m_DisplayName": "UV",
    "m_SlotType": 0,
    "m_Hidden": false,
    "m_ShaderOutputName": "UV",
    "m_StageCapability": 3,
    "m_Value": {
        "x": 0.0,
        "y": 0.0
    },
    "m_DefaultValue": {
        "x": 0.0,
        "y": 0.0
    },
    "m_Labels": [],
    "m_Channel": 0
}

{
    "m_SGVersion": 0,
    "m_Type": "UnityEditor.ShaderGraph.Vector1MaterialSlot",
    "m_ObjectId": "b52744fcc12940bba46a08466980f34f",
    "m_Id": 239501123,
    "m_DisplayName": "speed",
    "m_SlotType": 0,
    "m_Hidden": false,
    "m_ShaderOutputName": "_speed",
    "m_StageCapability": 3,
    "m_Value": 1.0,
    "m_DefaultValue": 0.0,
    "m_Labels": []
}

{
    "m_SGVersion": 0,
    "m_Type": "UnityEditor.ShaderGraph.Vector1MaterialSlot",
    "m_ObjectId": "b5658dc740f445ebb4c9ac1861ed17e7",
    "m_Id": -1359829709,
    "m_DisplayName": "zoom",
    "m_SlotType": 0,
    "m_Hidden": false,
    "m_ShaderOutputName": "_zoom",
    "m_StageCapability": 3,
    "m_Value": 4.0,
    "m_DefaultValue": 0.0,
    "m_Labels": []
}

{
    "m_SGVersion": 0,
    "m_Type": "UnityEditor.ShaderGraph.Vector2MaterialSlot",
    "m_ObjectId": "b5bfaca0e2f44163ac4538a7c205bc56",
    "m_Id": 4,
    "m_DisplayName": "Out",
    "m_SlotType": 1,
    "m_Hidden": false,
    "m_ShaderOutputName": "Out",
    "m_StageCapability": 3,
    "m_Value": {
        "x": 0.0,
        "y": 0.0
    },
    "m_DefaultValue": {
        "x": 0.0,
        "y": 0.0
    },
    "m_Labels": []
}

{
    "m_SGVersion": 0,
    "m_Type": "UnityEditor.ShaderGraph.Vector1MaterialSlot",
    "m_ObjectId": "b65231d382414e4a81ced4b0cc26f3e6",
    "m_Id": 2,
    "m_DisplayName": "Rotation",
    "m_SlotType": 0,
    "m_Hidden": false,
    "m_ShaderOutputName": "Rotation",
    "m_StageCapability": 3,
    "m_Value": 45.0,
    "m_DefaultValue": 0.0,
    "m_Labels": []
}

{
    "m_SGVersion": 0,
    "m_Type": "UnityEditor.ShaderGraph.Vector2MaterialSlot",
    "m_ObjectId": "bcb153bb4a394e4482e8e33c7926d971",
    "m_Id": 1,
    "m_DisplayName": "Center",
    "m_SlotType": 0,
    "m_Hidden": false,
    "m_ShaderOutputName": "Center",
    "m_StageCapability": 3,
    "m_Value": {
        "x": 0.5,
        "y": 0.5
    },
    "m_DefaultValue": {
        "x": 0.0,
        "y": 0.0
    },
    "m_Labels": []
}

{
    "m_SGVersion": 0,
    "m_Type": "UnityEditor.ShaderGraph.DynamicVectorMaterialSlot",
    "m_ObjectId": "bced167563614e6f92f9029e2f7192f8",
    "m_Id": 0,
    "m_DisplayName": "In",
    "m_SlotType": 0,
    "m_Hidden": false,
    "m_ShaderOutputName": "In",
    "m_StageCapability": 3,
    "m_Value": {
        "x": 0.0,
        "y": 0.0,
        "z": 0.0,
        "w": 0.0
    },
    "m_DefaultValue": {
        "x": 0.0,
        "y": 0.0,
        "z": 0.0,
        "w": 0.0
    }
}

{
    "m_SGVersion": 0,
    "m_Type": "UnityEditor.ShaderGraph.DynamicValueMaterialSlot",
    "m_ObjectId": "be2655371b484d30a9ea362c1c020162",
    "m_Id": 0,
    "m_DisplayName": "A",
    "m_SlotType": 0,
    "m_Hidden": false,
    "m_ShaderOutputName": "A",
    "m_StageCapability": 3,
    "m_Value": {
        "e00": 1.0,
        "e01": 0.0,
        "e02": 0.0,
        "e03": 0.0,
        "e10": 0.0,
        "e11": 0.0,
        "e12": 0.0,
        "e13": 0.0,
        "e20": 0.0,
        "e21": 0.0,
        "e22": 0.0,
        "e23": 0.0,
        "e30": 0.0,
        "e31": 0.0,
        "e32": 0.0,
        "e33": 0.0
    },
    "m_DefaultValue": {
        "e00": 1.0,
        "e01": 0.0,
        "e02": 0.0,
        "e03": 0.0,
        "e10": 0.0,
        "e11": 1.0,
        "e12": 0.0,
        "e13": 0.0,
        "e20": 0.0,
        "e21": 0.0,
        "e22": 1.0,
        "e23": 0.0,
        "e30": 0.0,
        "e31": 0.0,
        "e32": 0.0,
        "e33": 1.0
    }
}

{
    "m_SGVersion": 0,
    "m_Type": "UnityEditor.ShaderGraph.Vector4MaterialSlot",
    "m_ObjectId": "c2af25ec19f34ab2bbced2b9fefce37c",
    "m_Id": 0,
    "m_DisplayName": "Out",
    "m_SlotType": 1,
    "m_Hidden": false,
    "m_ShaderOutputName": "Out",
    "m_StageCapability": 3,
    "m_Value": {
        "x": 0.0,
        "y": 0.0,
        "z": 0.0,
        "w": 0.0
    },
    "m_DefaultValue": {
        "x": 0.0,
        "y": 0.0,
        "z": 0.0,
        "w": 0.0
    },
    "m_Labels": []
}

{
    "m_SGVersion": 0,
    "m_Type": "UnityEditor.ShaderGraph.MultiplyNode",
    "m_ObjectId": "c2bed2de8e634a7493c12bb59d3e5208",
    "m_Group": {
        "m_Id": ""
    },
    "m_Name": "Multiply",
    "m_DrawState": {
        "m_Expanded": true,
        "m_Position": {
            "serializedVersion": "2",
            "x": 3055.333251953125,
            "y": 287.33331298828127,
            "width": 209.33349609375,
            "height": 304.00006103515627
        }
    },
    "m_Slots": [
        {
            "m_Id": "eb039117ac66470abe011dcb68d383f3"
        },
        {
            "m_Id": "2d1c7da10c1845fcbc04084dcb83d841"
        },
        {
            "m_Id": "ffb6e3b2780541bbaf02ceb57c8ee103"
        }
    ],
    "synonyms": [
        "multiplication",
        "times",
        "x"
    ],
    "m_Precision": 0,
    "m_PreviewExpanded": true,
    "m_DismissedVersion": 0,
    "m_PreviewMode": 0,
    "m_CustomColors": {
        "m_SerializableColors": []
    }
}

{
    "m_SGVersion": 0,
    "m_Type": "UnityEditor.ShaderGraph.Vector1MaterialSlot",
    "m_ObjectId": "c9aaaaa5f62e4edb87c578c8b12dc64d",
    "m_Id": 0,
    "m_DisplayName": "Time",
    "m_SlotType": 1,
    "m_Hidden": false,
    "m_ShaderOutputName": "Time",
    "m_StageCapability": 3,
    "m_Value": 0.0,
    "m_DefaultValue": 0.0,
    "m_Labels": []
}

{
    "m_SGVersion": 0,
    "m_Type": "UnityEditor.ShaderGraph.Vector1MaterialSlot",
    "m_ObjectId": "cdbd4ddb7d4448c3892ff9dba8f4f274",
    "m_Id": 3,
    "m_DisplayName": "B",
    "m_SlotType": 1,
    "m_Hidden": false,
    "m_ShaderOutputName": "B",
    "m_StageCapability": 3,
    "m_Value": 0.0,
    "m_DefaultValue": 0.0,
    "m_Labels": []
}

{
    "m_SGVersion": 0,
    "m_Type": "UnityEditor.ShaderGraph.Vector1MaterialSlot",
    "m_ObjectId": "cea0b2ebc23d410f9323d99d7074da0c",
    "m_Id": 1,
    "m_DisplayName": "number",
    "m_SlotType": 1,
    "m_Hidden": false,
    "m_ShaderOutputName": "number",
    "m_StageCapability": 3,
    "m_Value": 0.0,
    "m_DefaultValue": 0.0,
    "m_Labels": []
}

{
    "m_SGVersion": 0,
    "m_Type": "UnityEditor.ShaderGraph.PropertyNode",
    "m_ObjectId": "d3d81e2eff97454d83efa649534859fc",
    "m_Group": {
        "m_Id": ""
    },
    "m_Name": "Property",
    "m_DrawState": {
        "m_Expanded": true,
        "m_Position": {
            "serializedVersion": "2",
            "x": -717.3187866210938,
            "y": 667.6651000976563,
            "width": 0.0,
            "height": 0.0
        }
    },
    "m_Slots": [
        {
            "m_Id": "8fa2ca82d5de46debcf5c9c17aa00a38"
        }
    ],
    "synonyms": [],
    "m_Precision": 0,
    "m_PreviewExpanded": true,
    "m_DismissedVersion": 0,
    "m_PreviewMode": 0,
    "m_CustomColors": {
        "m_SerializableColors": []
    },
    "m_Property": {
        "m_Id": "d3e3a9715bce4343a75f8b77404a8450"
    }
}

{
    "m_SGVersion": 1,
    "m_Type": "UnityEditor.ShaderGraph.Internal.Vector1ShaderProperty",
    "m_ObjectId": "d3e3a9715bce4343a75f8b77404a8450",
    "m_Guid": {
        "m_GuidSerialized": "62d5d6d2-36ad-4ffd-bfff-39d1753f63fa"
    },
    "m_Name": "timeOffset",
    "m_DefaultRefNameVersion": 1,
    "m_RefNameGeneratedByDisplayName": "timeOffset",
    "m_DefaultReferenceName": "_timeOffset",
    "m_OverrideReferenceName": "",
    "m_GeneratePropertyBlock": true,
    "m_UseCustomSlotLabel": false,
    "m_CustomSlotLabel": "",
    "m_DismissedVersion": 0,
    "m_Precision": 0,
    "overrideHLSLDeclaration": false,
    "hlslDeclarationOverride": 0,
    "m_Hidden": false,
    "m_Value": 0.0,
    "m_FloatType": 0,
    "m_RangeValues": {
        "x": 0.0,
        "y": 1.0
    }
}

{
    "m_SGVersion": 0,
    "m_Type": "UnityEditor.ShaderGraph.Vector1MaterialSlot",
    "m_ObjectId": "d4a64fa679024436a2b9bf76ab109971",
    "m_Id": -1359829709,
    "m_DisplayName": "zoom",
    "m_SlotType": 0,
    "m_Hidden": false,
    "m_ShaderOutputName": "_zoom",
    "m_StageCapability": 3,
    "m_Value": 8.0,
    "m_DefaultValue": 0.0,
    "m_Labels": []
}

{
    "m_SGVersion": 0,
    "m_Type": "UnityEditor.ShaderGraph.RotateNode",
    "m_ObjectId": "d78edd8ad52e49f0be2eba6c13e6b90a",
    "m_Group": {
        "m_Id": ""
    },
    "m_Name": "Rotate",
    "m_DrawState": {
        "m_Expanded": true,
        "m_Position": {
            "serializedVersion": "2",
            "x": 874.666748046875,
            "y": 374.0000305175781,
            "width": 209.3333740234375,
            "height": 363.9999694824219
        }
    },
    "m_Slots": [
        {
            "m_Id": "7ffd8f63b11344b790bc863171145e2a"
        },
        {
            "m_Id": "bcb153bb4a394e4482e8e33c7926d971"
        },
        {
            "m_Id": "07d8d49366fb4aa6a8610bed649d3427"
        },
        {
            "m_Id": "81d98abf30704f0fbcde4dd5aa0353ac"
        }
    ],
    "synonyms": [],
    "m_Precision": 0,
    "m_PreviewExpanded": true,
    "m_DismissedVersion": 0,
    "m_PreviewMode": 0,
    "m_CustomColors": {
        "m_SerializableColors": []
    },
    "m_Unit": 1
}

{
    "m_SGVersion": 0,
    "m_Type": "UnityEditor.ShaderGraph.Vector4MaterialSlot",
    "m_ObjectId": "d8bc3d2f60794f5ebc1639c28b0f53dd",
    "m_Id": 0,
    "m_DisplayName": "tint",
    "m_SlotType": 1,
    "m_Hidden": false,
    "m_ShaderOutputName": "Out",
    "m_StageCapability": 3,
    "m_Value": {
        "x": 0.0,
        "y": 0.0,
        "z": 0.0,
        "w": 0.0
    },
    "m_DefaultValue": {
        "x": 0.0,
        "y": 0.0,
        "z": 0.0,
        "w": 0.0
    },
    "m_Labels": []
}

{
    "m_SGVersion": 0,
    "m_Type": "UnityEditor.ShaderGraph.Vector1MaterialSlot",
    "m_ObjectId": "dc7d766bb93e4a1b904bc881ebcf9c82",
    "m_Id": 4,
    "m_DisplayName": "A",
    "m_SlotType": 1,
    "m_Hidden": false,
    "m_ShaderOutputName": "A",
    "m_StageCapability": 3,
    "m_Value": 0.0,
    "m_DefaultValue": 0.0,
    "m_Labels": []
}

{
    "m_SGVersion": 0,
    "m_Type": "UnityEditor.ShaderGraph.SubGraphNode",
    "m_ObjectId": "ddb26229ed6d4ebdb95b698589e6164d",
    "m_Group": {
        "m_Id": ""
    },
    "m_Name": "Shifting Gradient Noise",
    "m_DrawState": {
        "m_Expanded": true,
        "m_Position": {
            "serializedVersion": "2",
            "x": 1214.0,
            "y": 1101.3333740234375,
            "width": 209.3333740234375,
            "height": 328.0
        }
    },
    "m_Slots": [
        {
            "m_Id": "9df41bd9d8c74b6890b6e84de1364b53"
        },
        {
            "m_Id": "45bccceef16e4b6c957f9a44a91c460e"
        },
        {
            "m_Id": "b5658dc740f445ebb4c9ac1861ed17e7"
        },
        {
            "m_Id": "1dad21544e9b4f36acab2e025d2d4cca"
        }
    ],
    "synonyms": [],
    "m_Precision": 0,
    "m_PreviewExpanded": true,
    "m_DismissedVersion": 0,
    "m_PreviewMode": 0,
    "m_CustomColors": {
        "m_SerializableColors": []
    },
    "m_SerializedSubGraph": "{\n    \"subGraph\": {\n        \"fileID\": -5475051401550479605,\n        \"guid\": \"7348029dfe2231746be8d6d554ace24d\",\n        \"type\": 3\n    }\n}",
    "m_PropertyGuids": [
        "41ada8e8-bfe9-4302-a785-8a26e5ed632a",
        "9e13dfb2-50e2-43e5-8374-3bc21ac36220",
        "d28dc115-dfe6-46bd-8e80-89594e3b4b63"
    ],
    "m_PropertyIds": [
        239501123,
        1068447945,
        -1359829709
    ],
    "m_Dropdowns": [],
    "m_DropdownSelectedEntries": []
}

{
    "m_SGVersion": 0,
    "m_Type": "UnityEditor.ShaderGraph.Vector1MaterialSlot",
    "m_ObjectId": "de3a7eb316f44e5fb37a563d573383a9",
    "m_Id": 1068447945,
    "m_DisplayName": "timeOffset",
    "m_SlotType": 0,
    "m_Hidden": false,
    "m_ShaderOutputName": "_timeOffset",
    "m_StageCapability": 3,
    "m_Value": 0.5,
    "m_DefaultValue": 0.0,
    "m_Labels": []
}

{
    "m_SGVersion": 0,
    "m_Type": "UnityEditor.ShaderGraph.UVMaterialSlot",
    "m_ObjectId": "dfba16bae58643b98a6500b2d2e01264",
    "m_Id": 0,
    "m_DisplayName": "UV",
    "m_SlotType": 0,
    "m_Hidden": false,
    "m_ShaderOutputName": "UV",
    "m_StageCapability": 3,
    "m_Value": {
        "x": 0.0,
        "y": 0.0
    },
    "m_DefaultValue": {
        "x": 0.0,
        "y": 0.0
    },
    "m_Labels": [],
    "m_Channel": 0
}

{
    "m_SGVersion": 0,
    "m_Type": "UnityEditor.ShaderGraph.Vector1MaterialSlot",
    "m_ObjectId": "e2bbf3e1a3bf490aa639c5071c9dfca9",
    "m_Id": 1,
    "m_DisplayName": "number",
    "m_SlotType": 1,
    "m_Hidden": false,
    "m_ShaderOutputName": "number",
    "m_StageCapability": 3,
    "m_Value": 0.0,
    "m_DefaultValue": 0.0,
    "m_Labels": []
}

{
    "m_SGVersion": 0,
    "m_Type": "UnityEditor.ShaderGraph.ColorRGBMaterialSlot",
    "m_ObjectId": "e7a3205179424763a9b8531c3f3dc905",
    "m_Id": 1,
    "m_DisplayName": "From",
    "m_SlotType": 0,
    "m_Hidden": false,
    "m_ShaderOutputName": "From",
    "m_StageCapability": 3,
    "m_Value": {
        "x": 0.0,
        "y": 0.0,
        "z": 0.0
    },
    "m_DefaultValue": {
        "x": 0.0,
        "y": 0.0,
        "z": 0.0
    },
    "m_Labels": [],
    "m_ColorMode": 0,
    "m_DefaultColor": {
        "r": 0.0,
        "g": 0.0,
        "b": 0.0,
        "a": 0.0
    }
}

{
    "m_SGVersion": 0,
    "m_Type": "UnityEditor.ShaderGraph.SubGraphNode",
    "m_ObjectId": "ea7275d131de4d9b9a7a7d9bcf7f40a9",
    "m_Group": {
        "m_Id": ""
    },
    "m_Name": "Shifting Gradient Noise",
    "m_DrawState": {
        "m_Expanded": true,
        "m_Position": {
            "serializedVersion": "2",
            "x": 856.0000610351563,
            "y": -289.3333435058594,
            "width": 209.33319091796876,
            "height": 327.9999694824219
        }
    },
    "m_Slots": [
        {
            "m_Id": "2936bd87d6d744c0911e098d56abbb92"
        },
        {
            "m_Id": "26dfa5a3421f452199689abb4bf38c23"
        },
        {
            "m_Id": "039b062336534c96b2d469d4fd0d07bf"
        },
        {
            "m_Id": "a72dfe49964948e5a21737fc82614d06"
        }
    ],
    "synonyms": [],
    "m_Precision": 0,
    "m_PreviewExpanded": true,
    "m_DismissedVersion": 0,
    "m_PreviewMode": 0,
    "m_CustomColors": {
        "m_SerializableColors": []
    },
    "m_SerializedSubGraph": "{\n    \"subGraph\": {\n        \"fileID\": -5475051401550479605,\n        \"guid\": \"7348029dfe2231746be8d6d554ace24d\",\n        \"type\": 3\n    }\n}",
    "m_PropertyGuids": [
        "41ada8e8-bfe9-4302-a785-8a26e5ed632a",
        "9e13dfb2-50e2-43e5-8374-3bc21ac36220",
        "d28dc115-dfe6-46bd-8e80-89594e3b4b63"
    ],
    "m_PropertyIds": [
        239501123,
        1068447945,
        -1359829709
    ],
    "m_Dropdowns": [],
    "m_DropdownSelectedEntries": []
}

{
    "m_SGVersion": 0,
    "m_Type": "UnityEditor.ShaderGraph.DynamicValueMaterialSlot",
    "m_ObjectId": "eb039117ac66470abe011dcb68d383f3",
    "m_Id": 0,
    "m_DisplayName": "A",
    "m_SlotType": 0,
    "m_Hidden": false,
    "m_ShaderOutputName": "A",
    "m_StageCapability": 3,
    "m_Value": {
        "e00": 0.0,
        "e01": 0.0,
        "e02": 0.0,
        "e03": 0.0,
        "e10": 0.0,
        "e11": 0.0,
        "e12": 0.0,
        "e13": 0.0,
        "e20": 0.0,
        "e21": 0.0,
        "e22": 0.0,
        "e23": 0.0,
        "e30": 0.0,
        "e31": 0.0,
        "e32": 0.0,
        "e33": 0.0
    },
    "m_DefaultValue": {
        "e00": 1.0,
        "e01": 0.0,
        "e02": 0.0,
        "e03": 0.0,
        "e10": 0.0,
        "e11": 1.0,
        "e12": 0.0,
        "e13": 0.0,
        "e20": 0.0,
        "e21": 0.0,
        "e22": 1.0,
        "e23": 0.0,
        "e30": 0.0,
        "e31": 0.0,
        "e32": 0.0,
        "e33": 1.0
    }
}

{
    "m_SGVersion": 1,
    "m_Type": "UnityEditor.ShaderGraph.Internal.Vector4ShaderProperty",
    "m_ObjectId": "ecebb52bea434a5f9c1842268666264b",
    "m_Guid": {
        "m_GuidSerialized": "1d73a3d0-bdfb-4af1-80b0-31d61e7ec8c7"
    },
    "m_Name": "tint",
    "m_DefaultRefNameVersion": 1,
    "m_RefNameGeneratedByDisplayName": "tint",
    "m_DefaultReferenceName": "_tint",
    "m_OverrideReferenceName": "",
    "m_GeneratePropertyBlock": true,
    "m_UseCustomSlotLabel": false,
    "m_CustomSlotLabel": "",
    "m_DismissedVersion": 0,
    "m_Precision": 0,
    "overrideHLSLDeclaration": false,
    "hlslDeclarationOverride": 0,
    "m_Hidden": false,
    "m_Value": {
        "x": 0.0,
        "y": 0.0,
        "z": 0.0,
        "w": 0.0
    }
}

{
    "m_SGVersion": 1,
    "m_Type": "UnityEditor.ShaderGraph.Internal.Vector1ShaderProperty",
    "m_ObjectId": "f2d5b4fdf577440b93dd1924916f7410",
    "m_Guid": {
        "m_GuidSerialized": "3556884a-5189-4c74-8518-d283bf5f2ed3"
    },
    "m_Name": "zoom",
    "m_DefaultRefNameVersion": 1,
    "m_RefNameGeneratedByDisplayName": "zoom",
    "m_DefaultReferenceName": "_zoom",
    "m_OverrideReferenceName": "",
    "m_GeneratePropertyBlock": true,
    "m_UseCustomSlotLabel": false,
    "m_CustomSlotLabel": "",
    "m_DismissedVersion": 0,
    "m_Precision": 0,
    "overrideHLSLDeclaration": false,
    "hlslDeclarationOverride": 0,
    "m_Hidden": false,
    "m_Value": 4.0,
    "m_FloatType": 0,
    "m_RangeValues": {
        "x": 0.0,
        "y": 1.0
    }
}

{
    "m_SGVersion": 0,
    "m_Type": "UnityEditor.ShaderGraph.DynamicVectorMaterialSlot",
    "m_ObjectId": "f6b9376d406b470d96ee247c9a374537",
    "m_Id": 0,
    "m_DisplayName": "A",
    "m_SlotType": 0,
    "m_Hidden": false,
    "m_ShaderOutputName": "A",
    "m_StageCapability": 3,
    "m_Value": {
        "x": 0.0,
        "y": 0.0,
        "z": 0.0,
        "w": 0.0
    },
    "m_DefaultValue": {
        "x": 0.0,
        "y": 0.0,
        "z": 0.0,
        "w": 0.0
    }
}

{
    "m_SGVersion": 0,
    "m_Type": "UnityEditor.ShaderGraph.TimeNode",
    "m_ObjectId": "f76d8261e8bf47ae8914e1946a15e3f7",
    "m_Group": {
        "m_Id": ""
    },
    "m_Name": "Time",
    "m_DrawState": {
        "m_Expanded": true,
        "m_Position": {
            "serializedVersion": "2",
            "x": -1012.0001220703125,
            "y": 391.3331298828125,
            "width": 125.33355712890625,
            "height": 174.66668701171876
        }
    },
    "m_Slots": [
        {
            "m_Id": "c9aaaaa5f62e4edb87c578c8b12dc64d"
        },
        {
            "m_Id": "60a1408e5c474780b56e8e391733e5ae"
        },
        {
            "m_Id": "08f7271e024d476682c67157865bcfa5"
        },
        {
            "m_Id": "fb71e1febda84b9c9a1cc4d073e06cb7"
        },
        {
            "m_Id": "4814c3a17509476683c0a995b25483be"
        }
    ],
    "synonyms": [],
    "m_Precision": 0,
    "m_PreviewExpanded": true,
    "m_DismissedVersion": 0,
    "m_PreviewMode": 0,
    "m_CustomColors": {
        "m_SerializableColors": []
    }
}

{
    "m_SGVersion": 0,
    "m_Type": "UnityEditor.ShaderGraph.Vector1MaterialSlot",
    "m_ObjectId": "fb71e1febda84b9c9a1cc4d073e06cb7",
    "m_Id": 3,
    "m_DisplayName": "Delta Time",
    "m_SlotType": 1,
    "m_Hidden": false,
    "m_ShaderOutputName": "Delta Time",
    "m_StageCapability": 3,
    "m_Value": 0.0,
    "m_DefaultValue": 0.0,
    "m_Labels": []
}

{
    "m_SGVersion": 0,
    "m_Type": "UnityEditor.ShaderGraph.Vector2MaterialSlot",
    "m_ObjectId": "fd92a6c4f17b444eaf14fb98e8ea5071",
    "m_Id": 1,
    "m_DisplayName": "Center",
    "m_SlotType": 0,
    "m_Hidden": false,
    "m_ShaderOutputName": "Center",
    "m_StageCapability": 3,
    "m_Value": {
        "x": 0.5,
        "y": 0.5
    },
    "m_DefaultValue": {
        "x": 0.0,
        "y": 0.0
    },
    "m_Labels": []
}

{
    "m_SGVersion": 0,
    "m_Type": "UnityEditor.ShaderGraph.Vector3MaterialSlot",
    "m_ObjectId": "fe226b40c04b4527a9202ce7a0d69854",
    "m_Id": 3,
    "m_DisplayName": "Out",
    "m_SlotType": 1,
    "m_Hidden": false,
    "m_ShaderOutputName": "Out",
    "m_StageCapability": 3,
    "m_Value": {
        "x": 0.0,
        "y": 0.0,
        "z": 0.0
    },
    "m_DefaultValue": {
        "x": 0.0,
        "y": 0.0,
        "z": 0.0
    },
    "m_Labels": []
}

{
    "m_SGVersion": 0,
    "m_Type": "UnityEditor.ShaderGraph.Vector2MaterialSlot",
    "m_ObjectId": "febc57f068544c16abc00b97f67328f8",
    "m_Id": 3,
    "m_DisplayName": "Offset",
    "m_SlotType": 0,
    "m_Hidden": false,
    "m_ShaderOutputName": "Offset",
    "m_StageCapability": 3,
    "m_Value": {
        "x": 0.0,
        "y": 0.0
    },
    "m_DefaultValue": {
        "x": 0.0,
        "y": 0.0
    },
    "m_Labels": []
}

{
    "m_SGVersion": 0,
    "m_Type": "UnityEditor.ShaderGraph.DynamicValueMaterialSlot",
    "m_ObjectId": "ffb6e3b2780541bbaf02ceb57c8ee103",
    "m_Id": 2,
    "m_DisplayName": "Out",
    "m_SlotType": 1,
    "m_Hidden": false,
    "m_ShaderOutputName": "Out",
    "m_StageCapability": 3,
    "m_Value": {
        "e00": 0.0,
        "e01": 0.0,
        "e02": 0.0,
        "e03": 0.0,
        "e10": 0.0,
        "e11": 0.0,
        "e12": 0.0,
        "e13": 0.0,
        "e20": 0.0,
        "e21": 0.0,
        "e22": 0.0,
        "e23": 0.0,
        "e30": 0.0,
        "e31": 0.0,
        "e32": 0.0,
        "e33": 0.0
    },
    "m_DefaultValue": {
        "e00": 1.0,
        "e01": 0.0,
        "e02": 0.0,
        "e03": 0.0,
        "e10": 0.0,
        "e11": 1.0,
        "e12": 0.0,
        "e13": 0.0,
        "e20": 0.0,
        "e21": 0.0,
        "e22": 1.0,
        "e23": 0.0,
        "e30": 0.0,
        "e31": 0.0,
        "e32": 0.0,
        "e33": 1.0
    }
}

